{
  "countries": [
    {
      "idLeague": "4636",
      "idSoccerXML": null,
      "idAPIfootball": "5993",
      "strSport": "Soccer",
      "strLeague": "Finish Veikkausliiga",
      "strLeagueAlternate": "Tipsligan",
      "intDivision": "1",
      "idCup": "0",
      "strCurrentSeason": "2024",
      "intFormedYear": "1990",
      "dateFirstEvent": "2020-07-01",
      "strGender": "Male",
      "strCountry": "Finland",
      "strWebsite": "www.veikkausliiga.com",
      "strFacebook": "facebook.com\/Veikkausliiga\/",
      "strInstagram": "",
      "strTwitter": "twitter.com\/Veikkausliiga",
      "strYoutube": "instagram.com\/veikkausliiga",
      "strRSS": "",
      "strDescriptionEN": "Veikkausliiga (Swedish: Tipsligan) is the premier division of Finnish football, the highest tier of the Finnish football league structure, comprising the top 12 clubs of the country. Its main sponsor is the Finnish national betting agency Veikkaus, hence the league's name. Veikkausliiga was founded in 1990; before that the top division was called Mestaruussarja (championship series) since 1930 which was an amateur or semi-professional league. Between 1908 and 1930 the championship was decided as a knock-out cup competition.",
      "strDescriptionDE": null,
      "strDescriptionFR": null,
      "strDescriptionIT": null,
      "strDescriptionCN": null,
      "strDescriptionJP": null,
      "strDescriptionRU": null,
      "strDescriptionES": null,
      "strDescriptionPT": null,
      "strDescriptionSE": null,
      "strDescriptionNL": null,
      "strDescriptionHU": null,
      "strDescriptionNO": null,
      "strDescriptionPL": null,
      "strDescriptionIL": null,
      "strTvRights": null,
      "strFanart1": null,
      "strFanart2": null,
      "strFanart3": null,
      "strFanart4": null,
      "strBanner": null,
      "strBadge": "https:\/\/www.thesportsdb.com\/images\/media\/league\/badge\/1ejmmq1692684379.png",
      "strLogo": "https:\/\/www.thesportsdb.com\/images\/media\/league\/logo\/3ko2j31592500539.png",
      "strPoster": null,
      "strTrophy": null,
      "strNaming": "{strHomeTeam} vs {strAwayTeam}",
      "strComplete": null,
      "strLocked": "unlocked"
    },
    {
      "idLeague": "5186",
      "idSoccerXML": null,
      "idAPIfootball": "5043",
      "strSport": "Soccer",
      "strLeague": "Finnish Cup",
      "strLeagueAlternate": "Suomen Cup",
      "intDivision": "99",
      "idCup": "1",
      "strCurrentSeason": "2023",
      "intFormedYear": "1955",
      "dateFirstEvent": "2022-01-28",
      "strGender": "Male",
      "strCountry": "Finland",
      "strWebsite": "",
      "strFacebook": "",
      "strInstagram": "",
      "strTwitter": "",
      "strYoutube": "",
      "strRSS": "",
      "strDescriptionEN": "The Finnish Cup (Finnish: Suomen cup; Swedish: Finlands cup) is Finland's main national cup competition in football. This yearly competition is open for all member clubs of the FA of Finland and has been played since 1955.\r\n\r\nThe winner qualifies for the UEFA Europa Conference League.",
      "strDescriptionDE": null,
      "strDescriptionFR": null,
      "strDescriptionIT": null,
      "strDescriptionCN": null,
      "strDescriptionJP": null,
      "strDescriptionRU": null,
      "strDescriptionES": null,
      "strDescriptionPT": null,
      "strDescriptionSE": null,
      "strDescriptionNL": null,
      "strDescriptionHU": null,
      "strDescriptionNO": null,
      "strDescriptionPL": null,
      "strDescriptionIL": null,
      "strTvRights": null,
      "strFanart1": null,
      "strFanart2": null,
      "strFanart3": null,
      "strFanart4": null,
      "strBanner": null,
      "strBadge": "https:\/\/www.thesportsdb.com\/images\/media\/league\/badge\/1wzz3z1696460808.png",
      "strLogo": "https:\/\/www.thesportsdb.com\/images\/media\/league\/logo\/207ha31696461014.png",
      "strPoster": null,
      "strTrophy": null,
      "strNaming": "{strHomeTeam} vs {strAwayTeam}",
      "strComplete": null,
      "strLocked": "unlocked"
    },
    {
      "idLeague": "4931",
      "idSoccerXML": null,
      "idAPIfootball": "16",
      "strSport": "Ice Hockey",
      "strLeague": "Finnish Liiga",
      "strLeagueAlternate": "Finnish Elite League",
      "intDivision": "0",
      "idCup": "0",
      "strCurrentSeason": "2023-2024",
      "intFormedYear": "1975",
      "dateFirstEvent": "2020-10-01",
      "strGender": "Male",
      "strCountry": "Finland",
      "strWebsite": "www.liiga.fi\/fi",
      "strFacebook": "www.facebook.com\/smliiga",
      "strInstagram": "",
      "strTwitter": "twitter.com\/smliiga",
      "strYoutube": "",
      "strRSS": "",
      "strDescriptionEN": "The SM-liiga (marketed as just Liiga from 2013 on), colloquially called the Finnish Elite League in English, is the top professional ice hockey league in Finland. It is one of the six founding leagues of the Champions Hockey League and currently allocated five spots - the maximum number - based on success in previous editions. It was created in 1975 to replace the SM-sarja, which was fundamentally an amateur league. The SM-liiga is not directly overseen by the Finnish Ice Hockey Association, but the league and association have an agreement of cooperation. SM is a common abbreviation for Suomen mestaruus, \"Finnish championship\".\r\n\r\nThe SM-liiga formerly had a system of automatic promotion and relegation in place between itself and the Mestis, the second highest level of competition in Finland, but the automatic system was ended in 2000. The league was opened in 2005 and allowed KalPa to get a promotion. In 2009, a new system was introduced and it includes the last placed SM-liiga team facing the Mestis champion in a best of seven playout series. In 2013, the relegation system was abandoned again and replaced by a procedure in which successful clubs of Mestis may apply for a promotion if they fulfill definite financial criteria. Since 2013, Jokerit joined the KHL and Espoo Blues went bankrupt, but Sport, KooKoo and Jukurit were promoted. Therefore Liiga is a competition of 15 teams since the 2016–17 season.",
      "strDescriptionDE": null,
      "strDescriptionFR": null,
      "strDescriptionIT": null,
      "strDescriptionCN": null,
      "strDescriptionJP": null,
      "strDescriptionRU": null,
      "strDescriptionES": null,
      "strDescriptionPT": null,
      "strDescriptionSE": null,
      "strDescriptionNL": null,
      "strDescriptionHU": null,
      "strDescriptionNO": null,
      "strDescriptionPL": null,
      "strDescriptionIL": null,
      "strTvRights": null,
      "strFanart1": "https:\/\/www.thesportsdb.com\/images\/media\/league\/fanart\/3ky3w61615928938.jpg",
      "strFanart2": "https:\/\/www.thesportsdb.com\/images\/media\/league\/fanart\/ilkuz81615928949.jpg",
      "strFanart3": "https:\/\/www.thesportsdb.com\/images\/media\/league\/fanart\/bnfewa1615928963.jpg",
      "strFanart4": "https:\/\/www.thesportsdb.com\/images\/media\/league\/fanart\/07ch0x1615928973.jpg",
      "strBanner": "https:\/\/www.thesportsdb.com\/images\/media\/league\/banner\/zjxbe81615929272.jpg",
      "strBadge": "https:\/\/www.thesportsdb.com\/images\/media\/league\/badge\/8fted41615589869.png",
      "strLogo": "https:\/\/www.thesportsdb.com\/images\/media\/league\/logo\/yc0qpi1615926683.png",
      "strPoster": "https:\/\/www.thesportsdb.com\/images\/media\/league\/poster\/fzdzhk1615926365.jpg",
      "strTrophy": "https:\/\/www.thesportsdb.com\/images\/media\/league\/trophy\/lokqyl1615928072.png",
      "strNaming": "{strHomeTeam} vs {strAwayTeam}",
      "strComplete": "yes",
      "strLocked": "unlocked"
    },
    {
      "idLeague": "4935",
      "idSoccerXML": null,
      "idAPIfootball": "14",
      "strSport": "Ice Hockey",
      "strLeague": "Finnish Mestis",
      "strLeagueAlternate": "Finnish Mestaruussarja",
      "intDivision": "2",
      "idCup": "0",
      "strCurrentSeason": "2023-2024",
      "intFormedYear": "2000",
      "dateFirstEvent": "2020-09-24",
      "strGender": "Male",
      "strCountry": "Finland",
      "strWebsite": "mestis.fi\/fi",
      "strFacebook": "www.facebook.com\/MestisHockey",
      "strInstagram": "",
      "strTwitter": "twitter.com\/mestis",
      "strYoutube": "www.youtube.com\/channel\/UCySVAyET4s0PF7GlSE4hzOA",
      "strRSS": "",
      "strDescriptionEN": "Mestis (from Finnish: Mestaruussarja, meaning 'Championship series') is the second-highest men's ice hockey league in Finland. The league was established by the Finnish Ice Hockey Association in 2000 to replace the I-divisioona ('First Division'). It had initially been the highest hockey league in Finland that could be reached through playing merits alone; the SM-liiga was closed (to teams being relegated or promoted) in 2000. After the 2004–05 season, KalPa was promoted to the SM-liiga, and the Liiga was re-opened in the 2008–09 season. Vaasan Sport was promoted in 2014–15, KooKoo was promoted in 2015–16, and Jukurit was promoted in 2016–17. Mestis, however, is an open league, with promotion and relegation between it and Suomi-sarja. However there will be no relegation during the 2020-21 season due to the COVID-19 pandemic.",
      "strDescriptionDE": null,
      "strDescriptionFR": null,
      "strDescriptionIT": null,
      "strDescriptionCN": null,
      "strDescriptionJP": null,
      "strDescriptionRU": null,
      "strDescriptionES": null,
      "strDescriptionPT": null,
      "strDescriptionSE": null,
      "strDescriptionNL": null,
      "strDescriptionHU": null,
      "strDescriptionNO": null,
      "strDescriptionPL": null,
      "strDescriptionIL": null,
      "strTvRights": null,
      "strFanart1": null,
      "strFanart2": null,
      "strFanart3": null,
      "strFanart4": null,
      "strBanner": null,
      "strBadge": "https:\/\/www.thesportsdb.com\/images\/media\/league\/badge\/kpsk5m1615592034.png",
      "strLogo": null,
      "strPoster": null,
      "strTrophy": null,
      "strNaming": "{strHomeTeam} vs {strAwayTeam}",
      "strComplete": "no",
      "strLocked": "unlocked"
    },
    {
      "idLeague": "4963",
      "idSoccerXML": null,
      "idAPIfootball": "6012",
      "strSport": "Soccer",
      "strLeague": "Finnish Ykkönen",
      "strLeagueAlternate": "Ettan, Miesten Ykkönen",
      "intDivision": "2",
      "idCup": "0",
      "strCurrentSeason": "2024",
      "intFormedYear": "1973",
      "dateFirstEvent": "2021-05-05",
      "strGender": "Male",
      "strCountry": "Finland",
      "strWebsite": "www.palloliitto.fi\/paasarjat\/miesten-ykkonen",
      "strFacebook": "",
      "strInstagram": "",
      "strTwitter": "www.twitter.com\/MiestenYkkonen",
      "strYoutube": "",
      "strRSS": "",
      "strDescriptionEN": "Ykkönen (Finnish for 'Number One'; Swedish: Ettan) is the second highest level of the Finnish football league system (after the Veikkausliiga), although it is the highest league managed by the Football Association of Finland.\r\n\r\nThe first league format competition in the second level of Finnish football was called Suomensarja, which was founded in 1936. Before the inauguration of the Suomensarja, from 1930 to 1935, there had been special qualification matches for the right to play in the Mestaruussarja.\r\n\r\nIn the autumn of 1969, the Finnish football underwent a league system reform, and the Suomensarja was renamed II divisioona, or 2nd Division, with regional sections.\r\n\r\nIn 1973, this level of football in Finland became nationwide, and the new name was 1. divisioona (First Division). The name Ykkönen has been used since 1995.",
      "strDescriptionDE": null,
      "strDescriptionFR": null,
      "strDescriptionIT": null,
      "strDescriptionCN": null,
      "strDescriptionJP": null,
      "strDescriptionRU": null,
      "strDescriptionES": null,
      "strDescriptionPT": null,
      "strDescriptionSE": null,
      "strDescriptionNL": null,
      "strDescriptionHU": null,
      "strDescriptionNO": null,
      "strDescriptionPL": null,
      "strDescriptionIL": null,
      "strTvRights": null,
      "strFanart1": null,
      "strFanart2": null,
      "strFanart3": null,
      "strFanart4": null,
      "strBanner": null,
      "strBadge": "https:\/\/www.thesportsdb.com\/images\/media\/league\/badge\/v6axqu1615842437.png",
      "strLogo": "https:\/\/www.thesportsdb.com\/images\/media\/league\/logo\/arct5y1615842436.png",
      "strPoster": null,
      "strTrophy": null,
      "strNaming": "{strHomeTeam} vs {strAwayTeam}",
      "strComplete": null,
      "strLocked": "unlocked"
    },
    {
      "idLeague": "5116",
      "idSoccerXML": null,
      "idAPIfootball": "37",
      "strSport": "Basketball",
      "strLeague": "Finnish Korisliiga",
      "strLeagueAlternate": "",
      "intDivision": "1",
      "idCup": "0",
      "strCurrentSeason": "2023-2024",
      "intFormedYear": "1939",
      "dateFirstEvent": "2021-10-01",
      "strGender": "Male",
      "strCountry": "Finland",
      "strWebsite": "",
      "strFacebook": "",
      "strInstagram": "",
      "strTwitter": "",
      "strYoutube": "",
      "strRSS": "",
      "strDescriptionEN": "The Korisliiga is the top-tier professional basketball league in Finland, comprising the top 12 teams of the country. In its current format, each team plays all other teams two times in the regular season, once at home and once away, for a total of 22 regular season games. The top six teams advances continues to upper stage and the bottom six teams plays lower stage after 22 games, 5 games at home and 5 games at away versus all other teams in stage. The best two teams from lower group joins to playoffs with upper group teams. Playoffs are played best of seven format, expect quarter-finals which are played best of 5 format. Pantterit holds the record for the most league titles won, with 14. The top level Finnish league for women is the Naisten Korisliiga.",
      "strDescriptionDE": null,
      "strDescriptionFR": null,
      "strDescriptionIT": null,
      "strDescriptionCN": null,
      "strDescriptionJP": null,
      "strDescriptionRU": null,
      "strDescriptionES": null,
      "strDescriptionPT": null,
      "strDescriptionSE": null,
      "strDescriptionNL": null,
      "strDescriptionHU": null,
      "strDescriptionNO": null,
      "strDescriptionPL": null,
      "strDescriptionIL": null,
      "strTvRights": null,
      "strFanart1": null,
      "strFanart2": null,
      "strFanart3": null,
      "strFanart4": null,
      "strBanner": null,
      "strBadge": "https:\/\/www.thesportsdb.com\/images\/media\/league\/badge\/9szzvr1642005935.png",
      "strLogo": null,
      "strPoster": null,
      "strTrophy": null,
      "strNaming": "{strHomeTeam} vs {strAwayTeam}",
      "strComplete": null,
      "strLocked": "unlocked"
    }
  ]
}