{
  "countries": [
    {
      "idLeague": "5385",
      "idSoccerXML": null,
      "idAPIfootball": "5306",
      "strSport": "Soccer",
      "strLeague": "Montenegrin Second League",
      "strLeagueAlternate": null,
      "intDivision": "2",
      "idCup": "0",
      "strCurrentSeason": "2022-2023",
      "intFormedYear": null,
      "dateFirstEvent": null,
      "strGender": "Male",
      "strCountry": "Montenegro",
      "strWebsite": "",
      "strFacebook": "",
      "strInstagram": "",
      "strTwitter": "",
      "strYoutube": "",
      "strRSS": "",
      "strDescriptionEN": null,
      "strDescriptionDE": null,
      "strDescriptionFR": null,
      "strDescriptionIT": null,
      "strDescriptionCN": null,
      "strDescriptionJP": null,
      "strDescriptionRU": null,
      "strDescriptionES": null,
      "strDescriptionPT": null,
      "strDescriptionSE": null,
      "strDescriptionNL": null,
      "strDescriptionHU": null,
      "strDescriptionNO": null,
      "strDescriptionPL": null,
      "strDescriptionIL": null,
      "strTvRights": null,
      "strFanart1": null,
      "strFanart2": null,
      "strFanart3": null,
      "strFanart4": null,
      "strBanner": null,
      "strBadge": "https:\/\/www.thesportsdb.com\/images\/media\/league\/badge\/0aybvg1692687574.png",
      "strLogo": null,
      "strPoster": null,
      "strTrophy": null,
      "strNaming": "{strHomeTeam} vs {strAwayTeam}",
      "strComplete": null,
      "strLocked": "unlocked"
    },
    {
      "idLeague": "4656",
      "idSoccerXML": null,
      "idAPIfootball": "5354",
      "strSport": "Soccer",
      "strLeague": "Montenegrin First League",
      "strLeagueAlternate": "Prva crnogorska fudbalska liga, Prva CFL, CFL",
      "intDivision": "1",
      "idCup": "0",
      "strCurrentSeason": "2023-2024",
      "intFormedYear": "2006",
      "dateFirstEvent": "2020-02-22",
      "strGender": "Male",
      "strCountry": "Montenegro",
      "strWebsite": "fscg.me",
      "strFacebook": "www.facebook.com\/Telekom-1-CFL-212508140175344\/",
      "strInstagram": "",
      "strTwitter": "twitter.com\/FudbalskiSavez",
      "strYoutube": "www.instagram.com\/fscg_official",
      "strRSS": "",
      "strDescriptionEN": "The First League of Montenegro (Montenegrin: Prva crnogorska fudbalska liga — Prva CFL — 1. CFL) is the top football league in Montenegro. Founded in 2006, competition is headed by the Football Association of Montenegro. 10 teams participate in this league. The winner of the Montenegrin First League starts the qualifications for the UEFA Champions League from the second round. The second and third placed team and Montenegrin Cup winner play in the qualifying rounds of the UEFA Europa League. The last placed team is directly relegated to the Montenegrin Second League, and the two others are playing in Montenegrin First League playoffs.",
      "strDescriptionDE": null,
      "strDescriptionFR": null,
      "strDescriptionIT": null,
      "strDescriptionCN": null,
      "strDescriptionJP": null,
      "strDescriptionRU": null,
      "strDescriptionES": null,
      "strDescriptionPT": null,
      "strDescriptionSE": null,
      "strDescriptionNL": null,
      "strDescriptionHU": null,
      "strDescriptionNO": null,
      "strDescriptionPL": null,
      "strDescriptionIL": null,
      "strTvRights": null,
      "strFanart1": null,
      "strFanart2": null,
      "strFanart3": null,
      "strFanart4": null,
      "strBanner": null,
      "strBadge": "https:\/\/www.thesportsdb.com\/images\/media\/league\/badge\/i2v15i1579467863.png",
      "strLogo": null,
      "strPoster": null,
      "strTrophy": null,
      "strNaming": "{strHomeTeam} vs {strAwayTeam}",
      "strComplete": null,
      "strLocked": "unlocked"
    }
  ]
}