{
  "countries": [
    {
      "idLeague": "5237",
      "idSoccerXML": null,
      "idAPIfootball": "5695",
      "strSport": "Soccer",
      "strLeague": "Eswatini Premier League",
      "strLeagueAlternate": "Premier League of Eswatini, MTN Premier League",
      "intDivision": "1",
      "idCup": "0",
      "strCurrentSeason": "2023-2024",
      "intFormedYear": "1971",
      "dateFirstEvent": "2021-11-06",
      "strGender": "Male",
      "strCountry": "Swaziland",
      "strWebsite": "pls.co.sz",
      "strFacebook": "www.facebook.com\/PLEsoccer",
      "strInstagram": "",
      "strTwitter": "",
      "strYoutube": "www.youtube.com\/watch?v=RT9MWpg4M6I",
      "strRSS": "",
      "strDescriptionEN": "The Premier League of Eswatini, also known as the MTN Premier League due to sponsorship reasons, is the top division of the Eswatini Football Association. It was created in 1971 and plans to be a fully professional entity by 2022.",
      "strDescriptionDE": null,
      "strDescriptionFR": null,
      "strDescriptionIT": null,
      "strDescriptionCN": null,
      "strDescriptionJP": null,
      "strDescriptionRU": null,
      "strDescriptionES": null,
      "strDescriptionPT": null,
      "strDescriptionSE": null,
      "strDescriptionNL": null,
      "strDescriptionHU": null,
      "strDescriptionNO": null,
      "strDescriptionPL": null,
      "strDescriptionIL": null,
      "strTvRights": null,
      "strFanart1": null,
      "strFanart2": null,
      "strFanart3": null,
      "strFanart4": null,
      "strBanner": null,
      "strBadge": "https:\/\/www.thesportsdb.com\/images\/media\/league\/badge\/qv1gbo1645214065.png",
      "strLogo": null,
      "strPoster": null,
      "strTrophy": null,
      "strNaming": "{strHomeTeam} vs {strAwayTeam}",
      "strComplete": null,
      "strLocked": "unlocked"
    }
  ]
}