{
  "countries": [
    {
      "idLeague": "4815",
      "idSoccerXML": null,
      "idAPIfootball": "5270",
      "strSport": "Soccer",
      "strLeague": "Costa-Rica Liga FPD",
      "strLeagueAlternate": "Liga Promérica, Liga de Fútbol de Primera División",
      "intDivision": "1",
      "idCup": "0",
      "strCurrentSeason": "2023-2024",
      "intFormedYear": "1921",
      "dateFirstEvent": "2020-05-19",
      "strGender": "Male",
      "strCountry": "Costa Rica",
      "strWebsite": "unafut.com",
      "strFacebook": "www.facebook.com\/UnafutOficial\/",
      "strInstagram": "",
      "strTwitter": "twitter.com\/unafutoficial",
      "strYoutube": "",
      "strRSS": "",
      "strDescriptionEN": "The Liga de Fútbol de Primera División, commonly known as Liga FPD, and Liga Promérica for sponsorship reasons, is the top professional association football division in Costa Rica. It is administered by the Unión de Clubes de Fútbol de la Primera División (UNAFUT). The league consists of 12 teams, with the last-placed team relegated to the Liga de Ascenso.\r\n\r\nThe International Federation of Football History & Statistics (IFFHS) ranks the Liga FPD as the 51st strongest league in the world, and the 2nd strongest within CONCACAF, behind Mexico's Liga MX.\r\n\r\nThe league was founded in 1921, with Herediano crowned as the first champions. Saprissa is the most successful club having won the championship a record 34 times. Saprissa, joined with Alajuelense (29 titles) and Herediano (28 titles) have dominated the league.",
      "strDescriptionDE": null,
      "strDescriptionFR": null,
      "strDescriptionIT": null,
      "strDescriptionCN": null,
      "strDescriptionJP": null,
      "strDescriptionRU": null,
      "strDescriptionES": null,
      "strDescriptionPT": null,
      "strDescriptionSE": null,
      "strDescriptionNL": null,
      "strDescriptionHU": null,
      "strDescriptionNO": null,
      "strDescriptionPL": null,
      "strDescriptionIL": null,
      "strTvRights": "US - Centro America TV [2021]",
      "strFanart1": null,
      "strFanart2": null,
      "strFanart3": null,
      "strFanart4": null,
      "strBanner": null,
      "strBadge": "https:\/\/www.thesportsdb.com\/images\/media\/league\/badge\/o8gdat1589104930.png",
      "strLogo": "https:\/\/www.thesportsdb.com\/images\/media\/league\/logo\/dbfvxn1589104723.png",
      "strPoster": null,
      "strTrophy": null,
      "strNaming": "{strHomeTeam} vs {strAwayTeam}",
      "strComplete": null,
      "strLocked": "unlocked"
    }
  ]
}